<?xml version="1.0" encoding="UTF-8" standalone="no"?>
<!-- Created with Inkscape (http://www.inkscape.org/) -->

<svg
   xmlns:dc="http://purl.org/dc/elements/1.1/"
   xmlns:cc="http://creativecommons.org/ns#"
   xmlns:rdf="http://www.w3.org/1999/02/22-rdf-syntax-ns#"
   xmlns:svg="http://www.w3.org/2000/svg"
   xmlns="http://www.w3.org/2000/svg"
   xmlns:sodipodi="http://sodipodi.sourceforge.net/DTD/sodipodi-0.dtd"
   xmlns:inkscape="http://www.inkscape.org/namespaces/inkscape"
   width="480"
   height="360"
   viewBox="0 0 480.00001 359.99998"
   id="svg2"
   version="1.1"
   inkscape:version="0.91 r13725"
   sodipodi:docname="palco-trilho.svg"
   inkscape:export-filename="/home/raniere/jovemhacker/material/src/img/scratch/palco-trilho.png"
   inkscape:export-xdpi="164.0625"
   inkscape:export-ydpi="164.0625">
  <defs
     id="defs4">
    <clipPath
       id="clipPath16"
       clipPathUnits="userSpaceOnUse">
      <path
         id="path18"
         d="m 0,566.93 566.93,0 L 566.93,0 0,0 0,566.93 z" />
    </clipPath>
    <clipPath
       id="clipPath48"
       clipPathUnits="userSpaceOnUse">
      <path
         id="path50"
         d="m 0,566.93 566.93,0 L 566.93,0 0,0 0,566.93 z" />
    </clipPath>
    <clipPath
       id="clipPath16-0"
       clipPathUnits="userSpaceOnUse">
      <path
         id="path18-4"
         d="m 0,566.93 566.93,0 L 566.93,0 0,0 0,566.93 z"
         inkscape:connector-curvature="0" />
    </clipPath>
    <linearGradient
       id="linearGradient3118">
      <stop
         offset="0"
         style="stop-color:#0e0e0e"
         id="stop3120" />
      <stop
         offset=".7651"
         style="stop-color:#c7c7c7"
         id="stop3124" />
      <stop
         offset="1"
         style="stop-color:#151515"
         id="stop3122" />
    </linearGradient>
    <linearGradient
       id="linearGradient3091">
      <stop
         offset="0"
         style="stop-color:#0e0e0e"
         id="stop3093" />
      <stop
         offset="1"
         style="stop-color:#8b8b8b"
         id="stop3095" />
    </linearGradient>
  </defs>
  <sodipodi:namedview
     id="base"
     pagecolor="#ffffff"
     bordercolor="#666666"
     borderopacity="1.0"
     inkscape:pageopacity="0.0"
     inkscape:pageshadow="2"
     inkscape:zoom="0.9899495"
     inkscape:cx="231.44854"
     inkscape:cy="196.4798"
     inkscape:document-units="px"
     inkscape:current-layer="layer1"
     showgrid="false"
     units="px"
     inkscape:window-width="1362"
     inkscape:window-height="729"
     inkscape:window-x="0"
     inkscape:window-y="18"
     inkscape:window-maximized="0" />
  <metadata
     id="metadata7">
    <rdf:RDF>
      <cc:Work
         rdf:about="">
        <dc:format>image/svg+xml</dc:format>
        <dc:type
           rdf:resource="http://purl.org/dc/dcmitype/StillImage" />
        <dc:title></dc:title>
      </cc:Work>
    </rdf:RDF>
  </metadata>
  <g
     inkscape:label="Layer 1"
     inkscape:groupmode="layer"
     id="layer1"
     transform="translate(0,-692.36225)">
    <g
       id="g44"
       transform="matrix(1.25,0,0,-1.25,-35.335832,1409.5161)" />
    <rect
       style="opacity:1;fill:#008000;fill-opacity:1;fill-rule:nonzero;stroke:none;stroke-width:10;stroke-linecap:square;stroke-linejoin:round;stroke-miterlimit:4;stroke-dasharray:none;stroke-dashoffset:0;stroke-opacity:1"
       id="rect3642"
       width="480"
       height="360"
       x="0"
       y="692.36224"
       ry="0.36267"
       rx="0.36267" />
    <rect
       style="opacity:1;fill:#000000;fill-opacity:1;fill-rule:nonzero;stroke:none;stroke-width:10;stroke-linecap:square;stroke-linejoin:round;stroke-miterlimit:4;stroke-dasharray:none;stroke-dashoffset:0;stroke-opacity:1"
       id="rect3802"
       width="70"
       height="480"
       x="837.36224"
       y="-480"
       rx="0.36267"
       ry="0.36267"
       transform="matrix(0,1,-1,0,0,0)" />
    <g
       id="g3825">
      <rect
         transform="matrix(0,1,-1,0,0,0)"
         style="opacity:1;fill:#803300;fill-opacity:1;fill-rule:nonzero;stroke:none;stroke-width:10;stroke-linecap:square;stroke-linejoin:round;stroke-miterlimit:4;stroke-dasharray:none;stroke-dashoffset:0;stroke-opacity:1"
         id="rect3730"
         width="10"
         height="90"
         x="1042.3622"
         y="-284.99997"
         rx="0.36267"
         ry="0.36266997" />
      <rect
         transform="matrix(0,1,-1,0,0,0)"
         ry="0.36266997"
         rx="0.36267"
         y="-284.99997"
         x="1013.1955"
         height="90"
         width="10"
         id="rect3732"
         style="opacity:1;fill:#803300;fill-opacity:1;fill-rule:nonzero;stroke:none;stroke-width:10;stroke-linecap:square;stroke-linejoin:round;stroke-miterlimit:4;stroke-dasharray:none;stroke-dashoffset:0;stroke-opacity:1" />
      <rect
         transform="matrix(0,1,-1,0,0,0)"
         style="opacity:1;fill:#803300;fill-opacity:1;fill-rule:nonzero;stroke:none;stroke-width:10;stroke-linecap:square;stroke-linejoin:round;stroke-miterlimit:4;stroke-dasharray:none;stroke-dashoffset:0;stroke-opacity:1"
         id="rect3734"
         width="10"
         height="90"
         x="984.02887"
         y="-284.99997"
         rx="0.36267"
         ry="0.36266997" />
      <rect
         transform="matrix(0,1,-1,0,0,0)"
         ry="0.36266997"
         rx="0.36267"
         y="-284.99997"
         x="954.86218"
         height="90"
         width="10"
         id="rect3736"
         style="opacity:1;fill:#803300;fill-opacity:1;fill-rule:nonzero;stroke:none;stroke-width:10;stroke-linecap:square;stroke-linejoin:round;stroke-miterlimit:4;stroke-dasharray:none;stroke-dashoffset:0;stroke-opacity:1" />
      <rect
         transform="matrix(0,1,-1,0,0,0)"
         style="opacity:1;fill:#803300;fill-opacity:1;fill-rule:nonzero;stroke:none;stroke-width:10;stroke-linecap:square;stroke-linejoin:round;stroke-miterlimit:4;stroke-dasharray:none;stroke-dashoffset:0;stroke-opacity:1"
         id="rect3738"
         width="10"
         height="90"
         x="925.69556"
         y="-284.99997"
         rx="0.36267"
         ry="0.36266997" />
      <rect
         transform="matrix(0,1,-1,0,0,0)"
         ry="0.36266997"
         rx="0.36267"
         y="-284.99997"
         x="896.52887"
         height="90"
         width="10"
         id="rect3740"
         style="opacity:1;fill:#803300;fill-opacity:1;fill-rule:nonzero;stroke:none;stroke-width:10;stroke-linecap:square;stroke-linejoin:round;stroke-miterlimit:4;stroke-dasharray:none;stroke-dashoffset:0;stroke-opacity:1" />
      <rect
         transform="matrix(0,1,-1,0,0,0)"
         style="opacity:1;fill:#803300;fill-opacity:1;fill-rule:nonzero;stroke:none;stroke-width:10;stroke-linecap:square;stroke-linejoin:round;stroke-miterlimit:4;stroke-dasharray:none;stroke-dashoffset:0;stroke-opacity:1"
         id="rect3742"
         width="10"
         height="90"
         x="867.36218"
         y="-284.99997"
         rx="0.36267"
         ry="0.36266997" />
      <rect
         transform="matrix(0,1,-1,0,0,0)"
         ry="0.36266997"
         rx="0.36267"
         y="-284.99997"
         x="838.19556"
         height="90"
         width="10"
         id="rect3744"
         style="opacity:1;fill:#803300;fill-opacity:1;fill-rule:nonzero;stroke:none;stroke-width:10;stroke-linecap:square;stroke-linejoin:round;stroke-miterlimit:4;stroke-dasharray:none;stroke-dashoffset:0;stroke-opacity:1" />
      <rect
         transform="matrix(0,1,-1,0,0,0)"
         style="opacity:1;fill:#803300;fill-opacity:1;fill-rule:nonzero;stroke:none;stroke-width:10;stroke-linecap:square;stroke-linejoin:round;stroke-miterlimit:4;stroke-dasharray:none;stroke-dashoffset:0;stroke-opacity:1"
         id="rect3746"
         width="10"
         height="90"
         x="809.02887"
         y="-284.99997"
         rx="0.36267"
         ry="0.36266997" />
      <rect
         transform="matrix(0,1,-1,0,0,0)"
         ry="0.36266997"
         rx="0.36267"
         y="-284.99997"
         x="779.86218"
         height="90"
         width="10"
         id="rect3748"
         style="opacity:1;fill:#803300;fill-opacity:1;fill-rule:nonzero;stroke:none;stroke-width:10;stroke-linecap:square;stroke-linejoin:round;stroke-miterlimit:4;stroke-dasharray:none;stroke-dashoffset:0;stroke-opacity:1" />
      <rect
         transform="matrix(0,1,-1,0,0,0)"
         style="opacity:1;fill:#803300;fill-opacity:1;fill-rule:nonzero;stroke:none;stroke-width:10;stroke-linecap:square;stroke-linejoin:round;stroke-miterlimit:4;stroke-dasharray:none;stroke-dashoffset:0;stroke-opacity:1"
         id="rect3750"
         width="10"
         height="90"
         x="750.69556"
         y="-284.99997"
         rx="0.36267"
         ry="0.36266997" />
      <rect
         transform="matrix(0,1,-1,0,0,0)"
         ry="0.36266997"
         rx="0.36267"
         y="-284.99997"
         x="721.52893"
         height="90"
         width="10"
         id="rect3752"
         style="opacity:1;fill:#803300;fill-opacity:1;fill-rule:nonzero;stroke:none;stroke-width:10;stroke-linecap:square;stroke-linejoin:round;stroke-miterlimit:4;stroke-dasharray:none;stroke-dashoffset:0;stroke-opacity:1" />
      <rect
         transform="matrix(0,1,-1,0,0,0)"
         style="opacity:1;fill:#803300;fill-opacity:1;fill-rule:nonzero;stroke:none;stroke-width:10;stroke-linecap:square;stroke-linejoin:round;stroke-miterlimit:4;stroke-dasharray:none;stroke-dashoffset:0;stroke-opacity:1"
         id="rect3754"
         width="10"
         height="90"
         x="692.36224"
         y="-285"
         rx="0.36267"
         ry="0.36266997" />
      <g
         transform="matrix(0,0.75,-1,0,1142.3622,692.36223)"
         id="g3722">
        <rect
           style="opacity:1;fill:#666666;fill-opacity:1;fill-rule:nonzero;stroke:none;stroke-width:10;stroke-linecap:square;stroke-linejoin:round;stroke-miterlimit:4;stroke-dasharray:none;stroke-dashoffset:0;stroke-opacity:1"
           id="rect3644"
           width="480"
           height="10"
           x="0"
           y="867.36224"
           rx="0.36267"
           ry="0.48356" />
        <rect
           ry="0.48356"
           rx="0.36267"
           y="927.36224"
           x="0"
           height="10"
           width="480"
           id="rect3646"
           style="opacity:1;fill:#666666;fill-opacity:1;fill-rule:nonzero;stroke:none;stroke-width:10;stroke-linecap:square;stroke-linejoin:round;stroke-miterlimit:4;stroke-dasharray:none;stroke-dashoffset:0;stroke-opacity:1" />
      </g>
    </g>
  </g>
</svg>
